Apprentissage supervisé avec R - 1 Calcul de risques avec R
…
Exercice 1.4 (Autres outils R pour la courbe ROC) On dispose de 4 fonctions de score \(S_j(x)\) dont on souhaite visualiser les courbes ROC à partir des valeurs de score calculés sur un échantillon. On trouvera dans le tableau df les scores \(S_j(X_i),i=1,\dots,n\) ainsi que les observations des groupes \(Y_i\)

set.seed(12345)
n <- 200
Y <- rbinom(n,1,0.5)
S1 <- runif(n)
S2 <- S1
S2[Y==1] <- runif(sum(Y==1),0.6,1)
S2[Y==0] <- runif(sum(Y==0),0,0.6)
S3 <- S2
S3[Y==1][1:10] <- runif(10,0,0.6)
S3[Y==0][1:10] <- runif(10,0.6,1)
(tbl <- tibble(S1,S2,S3,Y=Y))
## # A tibble: 200 × 4
##        S1    S2      S3     Y
##     <dbl> <dbl>   <dbl> <int>
##  1 0.589  0.630 0.420       1
##  2 0.893  0.790 0.00624     1
##  3 0.124  0.706 0.302       1
##  4 0.513  0.692 0.439       1
##  5 0.664  0.203 0.806       0
##  6 0.766  0.404 0.666       0
##  7 0.0926 0.194 0.954       0
##  8 0.0676 0.838 0.198       1
##  9 0.556  0.664 0.492       1
## 10 0.651  0.942 0.531       1
## # ℹ 190 more rows
…
