Apprentissage supervisé avec R - 2 Estimation du risque par ré-échantillonnage
…
grid la grille de paramètres candidats ;

metrics le risque de prévision (erreur quadratique, erreur de classification, \(\text{AUC}\)…).

Exercice 2.3 (Validation hold out et validation croisée avec tidymodels) 

Retrouver les erreurs par validation hold out en utilisant tune_grid et collect_metrics.

ppv.ho <- ppv_wf |> 
  tune_grid(
    resamples = re_ech_ho,
    grid = grille_k,
    metrics=metric_set(accuracy))
ppv.ho |> collect_metrics()
## # A tibble: 100 × 7
##    neighbors .metric  .estimator  mean     n std_err .config
##        <int> <chr>    <chr>      <dbl> <int>   <dbl> <chr>  
##  1         1 accuracy binary     0.623     1      NA Prepro…
##  2         2 accuracy binary     0.623     1      NA Prepro…
##  3         3 accuracy binary     0.551     1      NA Prepro…
##  4         4 accuracy binary     0.551     1      NA Prepro…
##  5         5 accuracy binary     0.623     1      NA Prepro…
##  6         6 accuracy binary     0.623     1      NA Prepro…
##  7         7 accuracy binary     0.611     1      NA Prepro…
##  8         8 accuracy binary     0.611     1      NA Prepro…
##  9         9 accuracy binary     0.659     1      NA Prepro…
## 10        10 accuracy binary     0.659     1      NA Prepro…
## # ℹ 90 more rows
…
Faire le même travail pour la validation croisée 10 blocs.

Il suffit de changer l’option resamples dans tune_grid.

ppv.cv <- ppv_wf |> 
  tune_grid(
    resamples = re_ech_cv,
    grid = grille_k,
    metrics=metric_set(accuracy))
ppv.cv |> collect_metrics()
## # A tibble: 100 × 7
##    neighbors .metric  .estimator  mean     n std_err .config
##        <int> <chr>    <chr>      <dbl> <int>   <dbl> <chr>  
##  1         1 accuracy binary     0.618    10  0.0247 Prepro…
##  2         2 accuracy binary     0.618    10  0.0247 Prepro…
##  3         3 accuracy binary     0.672    10  0.0215 Prepro…
##  4         4 accuracy binary     0.672    10  0.0215 Prepro…
##  5         5 accuracy binary     0.69     10  0.0209 Prepro…
##  6         6 accuracy binary     0.69     10  0.0209 Prepro…
##  7         7 accuracy binary     0.704    10  0.0176 Prepro…
##  8         8 accuracy binary     0.704    10  0.0176 Prepro…
##  9         9 accuracy binary     0.696    10  0.0242 Prepro…
## 10        10 accuracy binary     0.696    10  0.0242 Prepro…
## # ℹ 90 more rows
…
Exercice 2.4 (Validation croisée pour l’AUC) Sélectionner la valeur de \(k\) qui maximise l’AUC calculé par validation croisée 10 blocs.

Il suffit de changer la métrique dans tune_grid (on pourra trouver la liste des métriques disponibles dans yardstick ici : https://yardstick.tidymodels.org/articles/metric-types.html) :

ppv.auc.cv <- ppv_wf |> 
  tune_grid(
    resamples = re_ech_cv,
    grid = grille_k,
    control=control_resamples(save_pred = TRUE),
    metrics=metric_set(roc_auc))
ppv.auc.cv |> collect_metrics()
## # A tibble: 100 × 7
##    neighbors .metric .estimator  mean     n std_err .config 
##        <int> <chr>   <chr>      <dbl> <int>   <dbl> <chr>   
##  1         1 roc_auc binary     0.619    10  0.0241 Preproc…
##  2         2 roc_auc binary     0.658    10  0.0172 Preproc…
##  3         3 roc_auc binary     0.698    10  0.0226 Preproc…
##  4         4 roc_auc binary     0.709    10  0.0217 Preproc…
##  5         5 roc_auc binary     0.734    10  0.0209 Preproc…
##  6         6 roc_auc binary     0.740    10  0.0200 Preproc…
##  7         7 roc_auc binary     0.744    10  0.0209 Preproc…
##  8         8 roc_auc binary     0.749    10  0.0225 Preproc…
##  9         9 roc_auc binary     0.755    10  0.0217 Preproc…
## 10        10 roc_auc binary     0.752    10  0.0221 Preproc…
## # ℹ 90 more rows

On a ajouté control=control_resamples(save_pred = TRUE) pour stocker les valeurs prédites et tracer les courbes ROC si besoin. La meilleur valeur de \(k\) s’obtient toujours avec :

(best_k_auc <- ppv.auc.cv |> select_best())
## # A tibble: 1 × 2
##   neighbors .config               
##       <int> <chr>                 
## 1        12 Preprocessor1_Model012

La courbe ROC pour la valeur sélectionnée s’obtient avec

(score <- collect_predictions(ppv.auc.cv))
## # A tibble: 50,000 × 7
##    id     .pred_0 .pred_1  .row neighbors Y     .config     
##    <chr>    <dbl>   <dbl> <int>     <int> <fct> <chr>       
##  1 Fold01       1       0     2         1 1     Preprocesso…
##  2 Fold01       0       1    33         1 0     Preprocesso…
##  3 Fold01       1       0    44         1 0     Preprocesso…
##  4 Fold01       1       0    52         1 1     Preprocesso…
##  5 Fold01       0       1    68         1 1     Preprocesso…
##  6 Fold01       0       1    79         1 1     Preprocesso…
##  7 Fold01       0       1    81         1 0     Preprocesso…
##  8 Fold01       1       0    98         1 0     Preprocesso…
##  9 Fold01       1       0   102         1 0     Preprocesso…
## 10 Fold01       1       0   127         1 0     Preprocesso…
## # ℹ 49,990 more rows
…
