Apprentissage supervisé avec R - 10 Données déséquilibrées
…
Toutes les observations des nouvelles données sont différentes des précédentes. On remarque que ce n’est plus le cas avec le jeu de paramètres suivant où la méthode ROSE devient un mélange de random oversampling et under sampling.

rose1 <- recipe(Y ~ ., data = df) |>
  step_rose(Y,seed = 1234,minority_smoothness = 0,majority_smoothness = 0) |> 
          prep() |> 
          bake(new_data = NULL)
rose1 |> count(Y)
## # A tibble: 2 × 2
##   Y         n
##   <fct> <int>
## 1 0        85
## 2 1        75
inner_join(rose1,df)
## # A tibble: 160 × 3
##         X1    X2 Y    
##      <dbl> <dbl> <fct>
##  1 0.688   0.306 0    
##  2 0.648   0.108 0    
##  3 0.658   0.957 0    
##  4 0.648   0.695 0    
##  5 0.00131 0.832 0    
##  6 0.337   0.856 0    
##  7 0.730   0.648 0    
##  8 0.986   0.181 0    
##  9 0.303   0.340 0    
## 10 0.161   0.597 0    
## # ℹ 150 more rows
…
