Apprentissage supervisé avec R - 3 Compléments
…
ppv.cv |> collect_metrics()
## # A tibble: 100 × 7
##    neighbors .metric  .estimator  mean     n std_err .config
##        <int> <chr>    <chr>      <dbl> <int>   <dbl> <chr>  
##  1         1 accuracy binary     0.618    10  0.0247 Prepro…
##  2         2 accuracy binary     0.618    10  0.0247 Prepro…
##  3         3 accuracy binary     0.672    10  0.0215 Prepro…
##  4         4 accuracy binary     0.672    10  0.0215 Prepro…
##  5         5 accuracy binary     0.69     10  0.0209 Prepro…
##  6         6 accuracy binary     0.69     10  0.0209 Prepro…
##  7         7 accuracy binary     0.704    10  0.0176 Prepro…
##  8         8 accuracy binary     0.704    10  0.0176 Prepro…
##  9         9 accuracy binary     0.696    10  0.0242 Prepro…
## 10        10 accuracy binary     0.696    10  0.0242 Prepro…
## # ℹ 90 more rows
…
